outdoors/DSC_0176.JPG -1496 0
outdoors/DSC_0177.JPG -1496 0
outdoors/DSC_0178.JPG -1496 0
outdoors/DSC_0179.JPG -1496 0
outdoors/DSC_0180.JPG -1496 0
outdoors/DSC_0181.JPG -1496 0
outdoors/DSC_0182.JPG -1496 0
outdoors/DSC_0183.JPG -1496 0
outdoors/DSC_0184.JPG -1496 0
outdoors/DSC_0185.JPG -1496 0
outdoors/DSC_0186.JPG -1496 0
outdoors/DSC_0187.JPG -1496 0
outdoors/DSC_0188.JPG -1496 0
outdoors/DSC_0189.JPG -1496 0
outdoors/DSC_0190.JPG -1496 0
outdoors/DSC_0191.JPG -1496 0
outdoors/DSC_0192.JPG -1496 0
outdoors/DSC_0193.JPG -1496 0
outdoors/DSC_0194.JPG -1496 0
outdoors/DSC_0195.JPG -1496 0
